EESchema Schematic File Version 2
LIBS:power
LIBS:device
LIBS:transistors
LIBS:conn
LIBS:linear
LIBS:regul
LIBS:74xx
LIBS:cmos4000
LIBS:adc-dac
LIBS:memory
LIBS:xilinx
LIBS:microcontrollers
LIBS:dsp
LIBS:microchip
LIBS:analog_switches
LIBS:motorola
LIBS:texas
LIBS:intel
LIBS:audio
LIBS:interface
LIBS:digital-audio
LIBS:philips
LIBS:display
LIBS:cypress
LIBS:siliconi
LIBS:opto
LIBS:atmel
LIBS:contrib
LIBS:valves
LIBS:AVRWriter-cache
EELAYER 25 0
EELAYER END
$Descr A4 11693 8268
encoding utf-8
Sheet 1 1
Title ""
Date ""
Rev ""
Comp ""
Comment1 ""
Comment2 ""
Comment3 ""
Comment4 ""
$EndDescr
$Comp
L CONN_01X06 P1
U 1 1 56CD30DE
P 1050 2800
F 0 "P1" H 1050 3150 50  0000 C CNN
F 1 "TTL-232R" V 1150 2800 50  0000 C CNN
F 2 "Pin_Headers:Pin_Header_Straight_1x06" H 1050 2800 50  0001 C CNN
F 3 "" H 1050 2800 50  0000 C CNN
	1    1050 2800
	-1   0    0    -1  
$EndComp
$Comp
L CONN_02X03 P2
U 1 1 56CD3149
P 1750 3850
F 0 "P2" H 1750 4050 50  0000 C CNN
F 1 "AVRISP-mkII" H 1750 3650 50  0000 C CNN
F 2 "Pin_Headers:Pin_Header_Straight_2x03" H 1750 2650 50  0001 C CNN
F 3 "" H 1750 2650 50  0000 C CNN
	1    1750 3850
	1    0    0    -1  
$EndComp
$Comp
L ATMEGA328P-P IC1
U 1 1 56CD31AE
P 4200 2450
F 0 "IC1" H 3450 3700 50  0000 L BNN
F 1 "ATMEGA328P-P" H 4600 1050 50  0000 L BNN
F 2 "Housings_DIP:DIP-28_W15.24mm" H 4200 2450 50  0000 C CIN
F 3 "" H 4200 2450 50  0000 C CNN
	1    4200 2450
	1    0    0    -1  
$EndComp
Text Label 900  1000 0    60   ~ 0
Direct_Vcc
Text Label 900  1300 0    60   ~ 0
GND
Text Label 1850 1000 0    60   ~ 0
Vcc
$Comp
L C C1
U 1 1 56CD32CB
P 1450 1150
F 0 "C1" H 1475 1250 50  0000 L CNN
F 1 "C" H 1475 1050 50  0000 L CNN
F 2 "Capacitors_ThroughHole:C_Disc_D3_P2.5" H 1488 1000 50  0001 C CNN
F 3 "" H 1450 1150 50  0000 C CNN
	1    1450 1150
	1    0    0    -1  
$EndComp
Text Label 1650 2550 0    60   ~ 0
GND
Text Label 1650 2750 0    60   ~ 0
Direct_Vcc
Text Label 1650 2850 0    60   ~ 0
TXD
Text Label 1650 2950 0    60   ~ 0
RXD
Text Label 1150 3950 0    60   ~ 0
Vcc
Text Label 1150 3750 0    60   ~ 0
GND
Text Label 1150 3850 0    60   ~ 0
MOSI
Text Label 2150 3750 0    60   ~ 0
Reset
Text Label 2150 3850 0    60   ~ 0
SCK
Text Label 2150 3950 0    60   ~ 0
MISO
$Comp
L C C2
U 1 1 56CD3851
P 2550 1500
F 0 "C2" H 2575 1600 50  0000 L CNN
F 1 "C" H 2575 1400 50  0000 L CNN
F 2 "Capacitors_SMD:C_0402" H 2588 1350 50  0001 C CNN
F 3 "" H 2550 1500 50  0000 C CNN
	1    2550 1500
	1    0    0    -1  
$EndComp
$Comp
L C C3
U 1 1 56CD3899
P 2850 1800
F 0 "C3" H 2875 1900 50  0000 L CNN
F 1 "C" H 2875 1700 50  0000 L CNN
F 2 "Capacitors_SMD:C_0402" H 2888 1650 50  0001 C CNN
F 3 "" H 2850 1800 50  0000 C CNN
	1    2850 1800
	1    0    0    -1  
$EndComp
$Comp
L C C4
U 1 1 56CD3927
P 3150 2100
F 0 "C4" H 3175 2200 50  0000 L CNN
F 1 "C" H 3175 2000 50  0000 L CNN
F 2 "Capacitors_SMD:C_0402" H 3188 1950 50  0001 C CNN
F 3 "" H 3150 2100 50  0000 C CNN
	1    3150 2100
	1    0    0    -1  
$EndComp
Text Label 2300 3550 0    60   ~ 0
GND
Text Label 5450 1850 0    60   ~ 0
SCK
Text Label 5450 1750 0    60   ~ 0
MISO
Text Label 5450 1650 0    60   ~ 0
MOSI
Text Label 5450 2800 0    60   ~ 0
Reset
Text Label 5450 2950 0    60   ~ 0
TXD
Text Label 5450 3050 0    60   ~ 0
RXD
$Comp
L R_PACK8 RP1
U 1 1 56CD3E31
P 6600 2350
F 0 "RP1" H 6600 2800 50  0000 C CNN
F 1 "R_PACK 330Ω" H 6600 1900 50  0000 C CNN
F 2 "Housings_SIP:SIP9_Housing" H 6600 2350 50  0001 C CNN
F 3 "" H 6600 2350 50  0000 C CNN
	1    6600 2350
	1    0    0    -1  
$EndComp
Text Label 6800 2850 0    60   ~ 0
GND
$Comp
L LED D7
U 1 1 56CD4090
P 6150 2700
F 0 "D7" H 6150 2800 50  0000 C CNN
F 1 "LED" H 6150 2600 50  0000 C CNN
F 2 "LEDs:LED-3MM" H 6150 2700 50  0001 C CNN
F 3 "" H 6150 2700 50  0000 C CNN
	1    6150 2700
	-1   0    0    1   
$EndComp
$Comp
L LED D4
U 1 1 56CD411E
P 5800 2600
F 0 "D4" H 5800 2700 50  0000 C CNN
F 1 "LED" H 5800 2500 50  0000 C CNN
F 2 "LEDs:LED-3MM" H 5800 2600 50  0001 C CNN
F 3 "" H 5800 2600 50  0000 C CNN
	1    5800 2600
	-1   0    0    1   
$EndComp
$Comp
L LED D2
U 1 1 56CD415A
P 5450 2500
F 0 "D2" H 5450 2600 50  0000 C CNN
F 1 "LED" H 5450 2400 50  0000 C CNN
F 2 "LEDs:LED-3MM" H 5450 2500 50  0001 C CNN
F 3 "" H 5450 2500 50  0000 C CNN
	1    5450 2500
	-1   0    0    1   
$EndComp
$Comp
L LED D6
U 1 1 56CD4241
P 6150 2400
F 0 "D6" H 6150 2500 50  0000 C CNN
F 1 "LED" H 6150 2300 50  0000 C CNN
F 2 "LEDs:LED-3MM" H 6150 2400 50  0001 C CNN
F 3 "" H 6150 2400 50  0000 C CNN
	1    6150 2400
	-1   0    0    1   
$EndComp
$Comp
L LED D3
U 1 1 56CD4247
P 5800 2300
F 0 "D3" H 5800 2400 50  0000 C CNN
F 1 "LED" H 5800 2200 50  0000 C CNN
F 2 "LEDs:LED-3MM" H 5800 2300 50  0001 C CNN
F 3 "" H 5800 2300 50  0000 C CNN
	1    5800 2300
	-1   0    0    1   
$EndComp
$Comp
L LED D1
U 1 1 56CD424D
P 5450 2200
F 0 "D1" H 5450 2300 50  0000 C CNN
F 1 "LED" H 5450 2100 50  0000 C CNN
F 2 "LEDs:LED-3MM" H 5450 2200 50  0001 C CNN
F 3 "" H 5450 2200 50  0000 C CNN
	1    5450 2200
	-1   0    0    1   
$EndComp
Wire Wire Line
	1150 3750 1500 3750
Wire Wire Line
	1150 3850 1500 3850
Wire Wire Line
	1150 3950 1500 3950
Wire Wire Line
	2000 3750 2150 3750
Wire Wire Line
	2000 3850 2150 3850
Wire Wire Line
	2000 3950 2150 3950
Wire Wire Line
	1250 2550 1650 2550
Wire Wire Line
	1250 2750 1650 2750
Wire Wire Line
	1250 2850 1650 2850
Wire Wire Line
	1250 2950 1650 2950
Wire Wire Line
	900  1000 1850 1000
Connection ~ 1450 1000
Wire Wire Line
	1450 1300 900  1300
Wire Wire Line
	2350 1350 3300 1350
Wire Wire Line
	2350 1650 3300 1650
Wire Wire Line
	3150 1950 3300 1950
Wire Wire Line
	2300 3550 3300 3550
Wire Wire Line
	3150 2250 3150 3650
Wire Wire Line
	3150 3650 3300 3650
Wire Wire Line
	2550 3550 2550 1650
Connection ~ 3150 3550
Wire Wire Line
	2850 1950 2850 3550
Connection ~ 2850 3550
Connection ~ 2550 3550
Wire Wire Line
	5200 1650 5450 1650
Wire Wire Line
	5450 1750 5200 1750
Wire Wire Line
	5200 1850 5450 1850
Wire Wire Line
	5200 2800 5450 2800
Wire Wire Line
	5200 2950 5450 2950
Wire Wire Line
	5450 3050 5200 3050
Wire Wire Line
	6800 2000 6800 2850
Connection ~ 6800 2100
Connection ~ 6800 2200
Connection ~ 6800 2300
Connection ~ 6800 2400
Connection ~ 6800 2500
Connection ~ 6800 2600
Connection ~ 6800 2700
Wire Wire Line
	5200 2200 5250 2200
Wire Wire Line
	5200 2500 5250 2500
Wire Wire Line
	5650 2200 6400 2200
Wire Wire Line
	6000 2300 6400 2300
Wire Wire Line
	6350 2400 6400 2400
Wire Wire Line
	5950 2400 5200 2400
Wire Wire Line
	5200 2300 5600 2300
Wire Wire Line
	5650 2500 6400 2500
Wire Wire Line
	5600 2600 5200 2600
Wire Wire Line
	5200 2700 5950 2700
Wire Wire Line
	6000 2600 6400 2600
Wire Wire Line
	6350 2700 6400 2700
$Comp
L LED D5
U 1 1 56CD4685
P 6150 2100
F 0 "D5" H 6150 2200 50  0000 C CNN
F 1 "LED" H 6150 2000 50  0000 C CNN
F 2 "LEDs:LED-5MM" H 6150 2100 50  0001 C CNN
F 3 "" H 6150 2100 50  0000 C CNN
	1    6150 2100
	-1   0    0    1   
$EndComp
Text Label 5700 2100 0    60   ~ 0
Vcc
Wire Wire Line
	5700 2100 5950 2100
Wire Wire Line
	6350 2100 6400 2100
NoConn ~ 6400 2000
NoConn ~ 5200 3150
NoConn ~ 5200 3250
NoConn ~ 5200 3350
NoConn ~ 5200 3450
NoConn ~ 5200 3550
NoConn ~ 5200 3650
NoConn ~ 5200 1350
NoConn ~ 5200 1450
NoConn ~ 5200 1550
NoConn ~ 5200 1950
NoConn ~ 5200 2050
$Comp
L PWR_FLAG #FLG01
U 1 1 56CD4C4B
P 700 1000
F 0 "#FLG01" H 700 1095 50  0001 C CNN
F 1 "PWR_FLAG" H 700 1180 50  0000 C CNN
F 2 "" H 700 1000 50  0000 C CNN
F 3 "" H 700 1000 50  0000 C CNN
	1    700  1000
	1    0    0    -1  
$EndComp
$Comp
L PWR_FLAG #FLG02
U 1 1 56CD4CB7
P 700 1300
F 0 "#FLG02" H 700 1395 50  0001 C CNN
F 1 "PWR_FLAG" H 700 1480 50  0000 C CNN
F 2 "" H 700 1300 50  0000 C CNN
F 3 "" H 700 1300 50  0000 C CNN
	1    700  1300
	1    0    0    -1  
$EndComp
Wire Wire Line
	700  1000 950  1000
Connection ~ 950  1000
Wire Wire Line
	700  1300 950  1300
Connection ~ 950  1300
NoConn ~ 1250 2650
NoConn ~ 1250 3050
Text Label 2350 1350 0    60   ~ 0
Vcc
Connection ~ 2550 1350
Wire Wire Line
	2350 1350 2350 1650
Connection ~ 2850 1650
$Comp
L SW_PUSH SW1
U 1 1 56D6F20E
P 7500 2150
F 0 "SW1" H 7650 2260 50  0000 C CNN
F 1 "SW_PUSH" H 7500 2070 50  0000 C CNN
F 2 "Buttons_Switches_ThroughHole:SW_DIP_x1_Slide" H 7500 2150 50  0001 C CNN
F 3 "" H 7500 2150 50  0000 C CNN
	1    7500 2150
	0    -1   -1   0   
$EndComp
$Comp
L R R1
U 1 1 56D6F2CB
P 7500 1550
F 0 "R1" V 7580 1550 50  0000 C CNN
F 1 "R" V 7500 1550 50  0000 C CNN
F 2 "Resistors_ThroughHole:Resistor_Horizontal_RM7mm" V 7430 1550 50  0001 C CNN
F 3 "" H 7500 1550 50  0000 C CNN
	1    7500 1550
	1    0    0    -1  
$EndComp
Text Label 7500 1250 0    60   ~ 0
Vcc
Wire Wire Line
	7500 1250 7500 1400
Wire Wire Line
	7500 1700 7500 1850
Wire Wire Line
	7500 1800 7700 1800
Connection ~ 7500 1800
Text Label 7700 1800 0    60   ~ 0
Reset
Text Label 7500 2600 0    60   ~ 0
GND
Wire Wire Line
	7500 2450 7500 2600
$EndSCHEMATC
